…
*Tip: If you want to call for all rows or columns it is enough to leave
blank space instead of the respective coordinate -
e.g. **`[,column_number]`***

### <span style="color: green">**Exercise 6**</span>

<span style="color: green">**Now, save 4th column of `my_data` as a
variable called `my_column_4`. Call the variable, so its content is
displayed in console.**</span>

Expected result (first 10 rows):

    ## # A tibble: 30 × 1
    ##    score
    ##    <dbl>
    ##  1    94
    ##  2    79
    ##  3    88
    ##  4    86
    ##  5    28
    ##  6    22
    ##  7    32
    ##  8    36
    ##  9    76
    ## 10    74
    ## # ℹ 20 more rows
…
Table can be also subsetted with the use of columns’ (or rows’) names.

### <span style="color: green">**Exercise 8**</span>

<span style="color: green">**Return the same column (4th) but use column
name instead of its number. Don’t forget about quotation marks.**</span>

Expected results (first 10 rows):

    ## # A tibble: 30 × 1
    ##    score
    ##    <dbl>
    ##  1    94
    ##  2    79
    ##  3    88
    ##  4    86
    ##  5    28
    ##  6    22
    ##  7    32
    ##  8    36
    ##  9    76
    ## 10    74
    ## # ℹ 20 more rows
…
Expected result:

    ## [1] 88 28 32 76 49

You can also subset everything except specified columns (or rows). To do
this, put minus (`-`) before an index or vector of indexes.

### <span style="color: green">**Exercise 12**</span>

<span style="color: green">**Return all columns of `my_data` except the
2nd one.**</span>

Expected result (first 10 rows):

    ## # A tibble: 30 × 3
    ##    individual  mass score
    ##    <chr>      <dbl> <dbl>
    ##  1 ind001        22    94
    ##  2 ind002        29    79
    ##  3 ind003        22    88
    ##  4 ind004        29    86
    ##  5 ind005        24    28
    ##  6 ind006        27    22
    ##  7 ind007        22    32
    ##  8 ind008        20    36
    ##  9 ind009        25    76
    ## 10 ind010        24    74
    ## # ℹ 20 more rows
…
